\babel@toc {english}{}\relax 
\contentsline {chapter}{\numberline {1}RGPS\sphinxhyphen {}Preprocessing}{1}{chapter.1}%
\contentsline {section}{\numberline {1.1}rgps\_preprocessing package}{1}{section.1.1}%
\contentsline {subsection}{\numberline {1.1.1}Submodules}{1}{subsection.1.1.1}%
\contentsline {subsection}{\numberline {1.1.2}rgps\_preprocessing.asf\_api module}{1}{subsection.1.1.2}%
\contentsline {subsection}{\numberline {1.1.3}rgps\_preprocessing.build\_geodataframes module}{2}{subsection.1.1.3}%
\contentsline {subsection}{\numberline {1.1.4}rgps\_preprocessing.constants module}{3}{subsection.1.1.4}%
\contentsline {subsection}{\numberline {1.1.5}rgps\_preprocessing.download\_images module}{3}{subsection.1.1.5}%
\contentsline {subsection}{\numberline {1.1.6}rgps\_preprocessing.examples module}{4}{subsection.1.1.6}%
\contentsline {subsection}{\numberline {1.1.7}rgps\_preprocessing.functions module}{5}{subsection.1.1.7}%
\contentsline {subsection}{\numberline {1.1.8}rgps\_preprocessing.geocoding module}{5}{subsection.1.1.8}%
\contentsline {subsection}{\numberline {1.1.9}rgps\_preprocessing.grid\_setup module}{6}{subsection.1.1.9}%
\contentsline {subsection}{\numberline {1.1.10}rgps\_preprocessing.ice\_concentration module}{8}{subsection.1.1.10}%
\contentsline {subsection}{\numberline {1.1.11}rgps\_preprocessing.matching module}{9}{subsection.1.1.11}%
\contentsline {subsection}{\numberline {1.1.12}rgps\_preprocessing.util module}{10}{subsection.1.1.12}%
\contentsline {subsection}{\numberline {1.1.13}Module contents}{10}{subsection.1.1.13}%
\contentsline {chapter}{\numberline {2}Indices and tables}{11}{chapter.2}%
\contentsline {chapter}{Python Module Index}{13}{section*.54}%
\contentsline {chapter}{Index}{15}{section*.55}%
