\relax 
\providecommand\hyper@newdestlabel[2]{}
\providecommand\babel@aux[2]{}
\@nameuse{bbl@beforestart}
\providecommand\HyperFirstAtBeginDocument{\AtBeginDocument}
\HyperFirstAtBeginDocument{\ifx\hyper@anchor\@undefined
\global\let\oldcontentsline\contentsline
\gdef\contentsline#1#2#3#4{\oldcontentsline{#1}{#2}{#3}}
\global\let\oldnewlabel\newlabel
\gdef\newlabel#1#2{\newlabelxx{#1}#2}
\gdef\newlabelxx#1#2#3#4#5#6{\oldnewlabel{#1}{{#2}{#3}}}
\AtEndDocument{\ifx\hyper@anchor\@undefined
\let\contentsline\oldcontentsline
\let\newlabel\oldnewlabel
\fi}
\fi}
\global\let\hyper@last\relax 
\gdef\HyperFirstAtBeginDocument#1{#1}
\providecommand\HyField@AuxAddToFields[1]{}
\providecommand\HyField@AuxAddToCoFields[2]{}
\babel@aux{english}{}
\newlabel{index::doc}{{}{1}{}{section*.2}{}}
\@writefile{toc}{\contentsline {chapter}{\numberline {1}RGPS\sphinxhyphen {}Preprocessing}{1}{chapter.1}\protected@file@percent }
\@writefile{lof}{\addvspace {10\p@ }}
\@writefile{lot}{\addvspace {10\p@ }}
\newlabel{modules:rgps-preprocessing}{{1}{1}{RGPS\sphinxhyphen {}Preprocessing}{chapter.1}{}}
\newlabel{modules::doc}{{1}{1}{RGPS\sphinxhyphen {}Preprocessing}{chapter.1}{}}
\@writefile{toc}{\contentsline {section}{\numberline {1.1}rgps\_preprocessing package}{1}{section.1.1}\protected@file@percent }
\newlabel{rgps_preprocessing:rgps-preprocessing-package}{{1.1}{1}{rgps\_preprocessing package}{section.1.1}{}}
\newlabel{rgps_preprocessing::doc}{{1.1}{1}{rgps\_preprocessing package}{section.1.1}{}}
\@writefile{toc}{\contentsline {subsection}{\numberline {1.1.1}Submodules}{1}{subsection.1.1.1}\protected@file@percent }
\newlabel{rgps_preprocessing:submodules}{{1.1.1}{1}{Submodules}{subsection.1.1.1}{}}
\@writefile{toc}{\contentsline {subsection}{\numberline {1.1.2}rgps\_preprocessing.asf\_api module}{1}{subsection.1.1.2}\protected@file@percent }
\newlabel{rgps_preprocessing:module-rgps_preprocessing.asf_api}{{1.1.2}{1}{rgps\_preprocessing.asf\_api module}{subsection.1.1.2}{}}
\newlabel{rgps_preprocessing:rgps-preprocessing-asf-api-module}{{1.1.2}{1}{rgps\_preprocessing.asf\_api module}{subsection.1.1.2}{}}
\newlabel{rgps_preprocessing:rgps_preprocessing.asf_api.daily_datapool_download}{{1.1.2}{1}{rgps\_preprocessing.asf\_api module}{section*.3}{}}
\newlabel{rgps_preprocessing:rgps_preprocessing.asf_api.datapool_filename}{{1.1.2}{1}{rgps\_preprocessing.asf\_api module}{section*.4}{}}
\newlabel{rgps_preprocessing:rgps_preprocessing.asf_api.daterange_datapool_download}{{1.1.2}{1}{rgps\_preprocessing.asf\_api module}{section*.5}{}}
\newlabel{rgps_preprocessing:rgps_preprocessing.asf_api.download_asf_data}{{1.1.2}{1}{rgps\_preprocessing.asf\_api module}{section*.6}{}}
\newlabel{rgps_preprocessing:rgps_preprocessing.asf_api.download_asf_zip}{{1.1.2}{2}{rgps\_preprocessing.asf\_api module}{section*.7}{}}
\newlabel{rgps_preprocessing:rgps_preprocessing.asf_api.urlformat}{{1.1.2}{2}{rgps\_preprocessing.asf\_api module}{section*.8}{}}
\@writefile{toc}{\contentsline {subsection}{\numberline {1.1.3}rgps\_preprocessing.build\_geodataframes module}{2}{subsection.1.1.3}\protected@file@percent }
\newlabel{rgps_preprocessing:module-rgps_preprocessing.build_geodataframes}{{1.1.3}{2}{rgps\_preprocessing.build\_geodataframes module}{subsection.1.1.3}{}}
\newlabel{rgps_preprocessing:rgps-preprocessing-build-geodataframes-module}{{1.1.3}{2}{rgps\_preprocessing.build\_geodataframes module}{subsection.1.1.3}{}}
\newlabel{rgps_preprocessing:rgps_preprocessing.build_geodataframes.build_daily_gdf}{{1.1.3}{2}{rgps\_preprocessing.build\_geodataframes module}{section*.9}{}}
\newlabel{rgps_preprocessing:rgps_preprocessing.build_geodataframes.daterange_get_dataframe}{{1.1.3}{2}{rgps\_preprocessing.build\_geodataframes module}{section*.10}{}}
\newlabel{rgps_preprocessing:rgps_preprocessing.build_geodataframes.daterange_save_dataframes}{{1.1.3}{3}{rgps\_preprocessing.build\_geodataframes module}{section*.11}{}}
\newlabel{rgps_preprocessing:rgps_preprocessing.build_geodataframes.load_geodataframe}{{1.1.3}{3}{rgps\_preprocessing.build\_geodataframes module}{section*.12}{}}
\@writefile{toc}{\contentsline {subsection}{\numberline {1.1.4}rgps\_preprocessing.constants module}{3}{subsection.1.1.4}\protected@file@percent }
\newlabel{rgps_preprocessing:module-rgps_preprocessing.constants}{{1.1.4}{3}{rgps\_preprocessing.constants module}{subsection.1.1.4}{}}
\newlabel{rgps_preprocessing:rgps-preprocessing-constants-module}{{1.1.4}{3}{rgps\_preprocessing.constants module}{subsection.1.1.4}{}}
\@writefile{toc}{\contentsline {subsection}{\numberline {1.1.5}rgps\_preprocessing.download\_images module}{3}{subsection.1.1.5}\protected@file@percent }
\newlabel{rgps_preprocessing:module-rgps_preprocessing.download_images}{{1.1.5}{3}{rgps\_preprocessing.download\_images module}{subsection.1.1.5}{}}
\newlabel{rgps_preprocessing:rgps-preprocessing-download-images-module}{{1.1.5}{3}{rgps\_preprocessing.download\_images module}{subsection.1.1.5}{}}
\newlabel{rgps_preprocessing:rgps_preprocessing.download_images.clear_cache}{{1.1.5}{3}{rgps\_preprocessing.download\_images module}{section*.13}{}}
\newlabel{rgps_preprocessing:rgps_preprocessing.download_images.download_all}{{1.1.5}{3}{rgps\_preprocessing.download\_images module}{section*.14}{}}
\newlabel{rgps_preprocessing:rgps_preprocessing.download_images.download_if_not_cached}{{1.1.5}{4}{rgps\_preprocessing.download\_images module}{section*.15}{}}
\newlabel{rgps_preprocessing:rgps_preprocessing.download_images.extract_geotiff}{{1.1.5}{4}{rgps\_preprocessing.download\_images module}{section*.16}{}}
\newlabel{rgps_preprocessing:rgps_preprocessing.download_images.extract_zip}{{1.1.5}{4}{rgps\_preprocessing.download\_images module}{section*.17}{}}
\newlabel{rgps_preprocessing:rgps_preprocessing.download_images.geocode_image}{{1.1.5}{4}{rgps\_preprocessing.download\_images module}{section*.18}{}}
\newlabel{rgps_preprocessing:rgps_preprocessing.download_images.load_cache}{{1.1.5}{4}{rgps\_preprocessing.download\_images module}{section*.19}{}}
\newlabel{rgps_preprocessing:rgps_preprocessing.download_images.save_cache}{{1.1.5}{4}{rgps\_preprocessing.download\_images module}{section*.20}{}}
\@writefile{toc}{\contentsline {subsection}{\numberline {1.1.6}rgps\_preprocessing.examples module}{4}{subsection.1.1.6}\protected@file@percent }
\newlabel{rgps_preprocessing:module-rgps_preprocessing.examples}{{1.1.6}{4}{rgps\_preprocessing.examples module}{subsection.1.1.6}{}}
\newlabel{rgps_preprocessing:rgps-preprocessing-examples-module}{{1.1.6}{4}{rgps\_preprocessing.examples module}{subsection.1.1.6}{}}
\newlabel{rgps_preprocessing:rgps_preprocessing.examples.example_datapool_download}{{1.1.6}{4}{rgps\_preprocessing.examples module}{section*.21}{}}
\newlabel{rgps_preprocessing:rgps_preprocessing.examples.example_download_images}{{1.1.6}{4}{rgps\_preprocessing.examples module}{section*.22}{}}
\newlabel{rgps_preprocessing:rgps_preprocessing.examples.example_get_all_matches}{{1.1.6}{4}{rgps\_preprocessing.examples module}{section*.23}{}}
\newlabel{rgps_preprocessing:rgps_preprocessing.examples.example_get_dataframes}{{1.1.6}{4}{rgps\_preprocessing.examples module}{section*.24}{}}
\newlabel{rgps_preprocessing:rgps_preprocessing.examples.example_save_dataframes}{{1.1.6}{4}{rgps\_preprocessing.examples module}{section*.25}{}}
\newlabel{rgps_preprocessing:rgps_preprocessing.examples.example_setup}{{1.1.6}{5}{rgps\_preprocessing.examples module}{section*.26}{}}
\@writefile{toc}{\contentsline {subsection}{\numberline {1.1.7}rgps\_preprocessing.functions module}{5}{subsection.1.1.7}\protected@file@percent }
\newlabel{rgps_preprocessing:module-rgps_preprocessing.functions}{{1.1.7}{5}{rgps\_preprocessing.functions module}{subsection.1.1.7}{}}
\newlabel{rgps_preprocessing:rgps-preprocessing-functions-module}{{1.1.7}{5}{rgps\_preprocessing.functions module}{subsection.1.1.7}{}}
\newlabel{rgps_preprocessing:rgps_preprocessing.functions.clean}{{1.1.7}{5}{rgps\_preprocessing.functions module}{section*.27}{}}
\newlabel{rgps_preprocessing:rgps_preprocessing.functions.setup_config}{{1.1.7}{5}{rgps\_preprocessing.functions module}{section*.28}{}}
\newlabel{rgps_preprocessing:rgps_preprocessing.functions.setup_hem_daterange}{{1.1.7}{5}{rgps\_preprocessing.functions module}{section*.29}{}}
\@writefile{toc}{\contentsline {subsection}{\numberline {1.1.8}rgps\_preprocessing.geocoding module}{5}{subsection.1.1.8}\protected@file@percent }
\newlabel{rgps_preprocessing:module-rgps_preprocessing.geocoding}{{1.1.8}{5}{rgps\_preprocessing.geocoding module}{subsection.1.1.8}{}}
\newlabel{rgps_preprocessing:rgps-preprocessing-geocoding-module}{{1.1.8}{5}{rgps\_preprocessing.geocoding module}{subsection.1.1.8}{}}
\newlabel{rgps_preprocessing:rgps_preprocessing.geocoding.GdalRaster}{{1.1.8}{5}{rgps\_preprocessing.geocoding module}{section*.30}{}}
\newlabel{rgps_preprocessing:rgps_preprocessing.geocoding.GdalRaster.close}{{1.1.8}{5}{rgps\_preprocessing.geocoding module}{section*.31}{}}
\newlabel{rgps_preprocessing:rgps_preprocessing.geocoding.GdalRaster.get_extent}{{1.1.8}{5}{rgps\_preprocessing.geocoding module}{section*.32}{}}
\newlabel{rgps_preprocessing:rgps_preprocessing.geocoding.GdalRaster.raw_to_array}{{1.1.8}{5}{rgps\_preprocessing.geocoding module}{section*.33}{}}
\newlabel{rgps_preprocessing:rgps_preprocessing.geocoding.GdalRaster.reproject}{{1.1.8}{5}{rgps\_preprocessing.geocoding module}{section*.34}{}}
\newlabel{rgps_preprocessing:rgps_preprocessing.geocoding.crs_transform}{{1.1.8}{5}{rgps\_preprocessing.geocoding module}{section*.35}{}}
\newlabel{rgps_preprocessing:rgps_preprocessing.geocoding.get_hemisphere}{{1.1.8}{6}{rgps\_preprocessing.geocoding module}{section*.36}{}}
\newlabel{rgps_preprocessing:rgps_preprocessing.geocoding.lonlat2ssmi}{{1.1.8}{6}{rgps\_preprocessing.geocoding module}{section*.37}{}}
\newlabel{rgps_preprocessing:rgps_preprocessing.geocoding.warp_dataset}{{1.1.8}{6}{rgps\_preprocessing.geocoding module}{section*.38}{}}
\@writefile{toc}{\contentsline {subsection}{\numberline {1.1.9}rgps\_preprocessing.grid\_setup module}{6}{subsection.1.1.9}\protected@file@percent }
\newlabel{rgps_preprocessing:module-rgps_preprocessing.grid_setup}{{1.1.9}{6}{rgps\_preprocessing.grid\_setup module}{subsection.1.1.9}{}}
\newlabel{rgps_preprocessing:rgps-preprocessing-grid-setup-module}{{1.1.9}{6}{rgps\_preprocessing.grid\_setup module}{subsection.1.1.9}{}}
\newlabel{rgps_preprocessing:rgps_preprocessing.grid_setup.find_nxny}{{1.1.9}{6}{rgps\_preprocessing.grid\_setup module}{section*.39}{}}
\newlabel{rgps_preprocessing:rgps_preprocessing.grid_setup.generate_fillgrid}{{1.1.9}{6}{rgps\_preprocessing.grid\_setup module}{section*.40}{}}
\newlabel{rgps_preprocessing:rgps_preprocessing.grid_setup.genereate_fillconn}{{1.1.9}{7}{rgps\_preprocessing.grid\_setup module}{section*.41}{}}
\newlabel{rgps_preprocessing:rgps_preprocessing.grid_setup.setup_cellgrid}{{1.1.9}{7}{rgps\_preprocessing.grid\_setup module}{section*.42}{}}
\@writefile{toc}{\contentsline {subsection}{\numberline {1.1.10}rgps\_preprocessing.ice\_concentration module}{8}{subsection.1.1.10}\protected@file@percent }
\newlabel{rgps_preprocessing:module-rgps_preprocessing.ice_concentration}{{1.1.10}{8}{rgps\_preprocessing.ice\_concentration module}{subsection.1.1.10}{}}
\newlabel{rgps_preprocessing:rgps-preprocessing-ice-concentration-module}{{1.1.10}{8}{rgps\_preprocessing.ice\_concentration module}{subsection.1.1.10}{}}
\newlabel{rgps_preprocessing:rgps_preprocessing.ice_concentration.build_amsr_filename}{{1.1.10}{8}{rgps\_preprocessing.ice\_concentration module}{section*.43}{}}
\newlabel{rgps_preprocessing:rgps_preprocessing.ice_concentration.build_amsr_path}{{1.1.10}{8}{rgps\_preprocessing.ice\_concentration module}{section*.44}{}}
\newlabel{rgps_preprocessing:rgps_preprocessing.ice_concentration.build_amsr_url}{{1.1.10}{8}{rgps\_preprocessing.ice\_concentration module}{section*.45}{}}
\newlabel{rgps_preprocessing:rgps_preprocessing.ice_concentration.daily_download_amsr_data}{{1.1.10}{8}{rgps\_preprocessing.ice\_concentration module}{section*.46}{}}
\newlabel{rgps_preprocessing:rgps_preprocessing.ice_concentration.daterange_amsr_download_data}{{1.1.10}{8}{rgps\_preprocessing.ice\_concentration module}{section*.47}{}}
\newlabel{rgps_preprocessing:rgps_preprocessing.ice_concentration.get_land_and_ice_percentage}{{1.1.10}{9}{rgps\_preprocessing.ice\_concentration module}{section*.48}{}}
\@writefile{toc}{\contentsline {subsection}{\numberline {1.1.11}rgps\_preprocessing.matching module}{9}{subsection.1.1.11}\protected@file@percent }
\newlabel{rgps_preprocessing:module-rgps_preprocessing.matching}{{1.1.11}{9}{rgps\_preprocessing.matching module}{subsection.1.1.11}{}}
\newlabel{rgps_preprocessing:rgps-preprocessing-matching-module}{{1.1.11}{9}{rgps\_preprocessing.matching module}{subsection.1.1.11}{}}
\newlabel{rgps_preprocessing:rgps_preprocessing.matching.get_all_matches}{{1.1.11}{9}{rgps\_preprocessing.matching module}{section*.49}{}}
\newlabel{rgps_preprocessing:rgps_preprocessing.matching.get_target_df_matches}{{1.1.11}{9}{rgps\_preprocessing.matching module}{section*.50}{}}
\@writefile{toc}{\contentsline {subsection}{\numberline {1.1.12}rgps\_preprocessing.util module}{10}{subsection.1.1.12}\protected@file@percent }
\newlabel{rgps_preprocessing:module-rgps_preprocessing.util}{{1.1.12}{10}{rgps\_preprocessing.util module}{subsection.1.1.12}{}}
\newlabel{rgps_preprocessing:rgps-preprocessing-util-module}{{1.1.12}{10}{rgps\_preprocessing.util module}{subsection.1.1.12}{}}
\newlabel{rgps_preprocessing:rgps_preprocessing.util.build_daily_path}{{1.1.12}{10}{rgps\_preprocessing.util module}{section*.51}{}}
\newlabel{rgps_preprocessing:rgps_preprocessing.util.daterange}{{1.1.12}{10}{rgps\_preprocessing.util module}{section*.52}{}}
\newlabel{rgps_preprocessing:rgps_preprocessing.util.verify_dir}{{1.1.12}{10}{rgps\_preprocessing.util module}{section*.53}{}}
\@writefile{toc}{\contentsline {subsection}{\numberline {1.1.13}Module contents}{10}{subsection.1.1.13}\protected@file@percent }
\newlabel{rgps_preprocessing:module-rgps_preprocessing}{{1.1.13}{10}{Module contents}{subsection.1.1.13}{}}
\newlabel{rgps_preprocessing:module-contents}{{1.1.13}{10}{Module contents}{subsection.1.1.13}{}}
\@writefile{toc}{\contentsline {chapter}{\numberline {2}Indices and tables}{11}{chapter.2}\protected@file@percent }
\@writefile{lof}{\addvspace {10\p@ }}
\@writefile{lot}{\addvspace {10\p@ }}
\newlabel{index:indices-and-tables}{{2}{11}{Indices and tables}{chapter.2}{}}
\@writefile{toc}{\contentsline {chapter}{Python Module Index}{13}{section*.54}\protected@file@percent }
\@writefile{toc}{\contentsline {chapter}{Index}{15}{section*.55}\protected@file@percent }
\gdef \@abspage@last{20}
